module github.com/alexandrainst/D2D-communication

go 1.15



require (
	github.com/alexandrainst/agentlogic v0.2.0
	github.com/libp2p/go-libp2p v0.11.0
	github.com/libp2p/go-libp2p-core v0.6.1
	github.com/libp2p/go-libp2p-pubsub v0.3.6
	github.com/libp2p/go-libp2p-tls v0.1.3
	github.com/multiformats/go-multiaddr v0.3.1
	github.com/paulmach/orb v0.1.7
)
